{
  "project_info": {
    "project_number": "740354423333",
    "firebase_url": "https://tabsewa-b333a.firebaseio.com",
    "project_id": "tabsewa-b333a",
    "storage_bucket": "tabsewa-b333a.appspot.com"
  },
  "client": [
    {
      "client_info": {
        "mobilesdk_app_id": "1:740354423333:android:ddf46f0371b93b3c",
        "android_client_info": {
          "package_name": "com.autofocus.www.kerent"
        }
      },
      "oauth_client": [
        {
          "client_id": "740354423333-f24o7575kc50t2gd8iq7rfkt1g797v7g.apps.googleusercontent.com",
          "client_type": 1,
          "android_info": {
            "package_name": "com.autofocus.www.kerent",
            "certificate_hash": "b6e8a02b895db05fe0475c313cfc1301c5bcc763"
          }
        },
        {
          "client_id": "740354423333-t32iint2u44s8pen185bloc91vgkur8g.apps.googleusercontent.com",
          "client_type": 3
        }
      ],
      "api_key": [
        {
          "current_key": "AIzaSyD6u2sL5hLRbsmWxNtju3FkxA2KHI-zaSQ"
        }
      ],
      "services": {
        "analytics_service": {
          "status": 1
        },
        "appinvite_service": {
          "status": 2,
          "other_platform_oauth_client": [
            {
              "client_id": "740354423333-t32iint2u44s8pen185bloc91vgkur8g.apps.googleusercontent.com",
              "client_type": 3
            }
          ]
        },
        "ads_service": {
          "status": 2
        }
      }
    },
    {
      "client_info": {
        "mobilesdk_app_id": "1:740354423333:android:857c08aa57577527",
        "android_client_info": {
          "package_name": "com.lokacorner.tabsewa"
        }
      },
      "oauth_client": [
        {
          "client_id": "740354423333-gqlbes4fk0fdac3708019fosgu35eja4.apps.googleusercontent.com",
          "client_type": 1,
          "android_info": {
            "package_name": "com.lokacorner.tabsewa",
            "certificate_hash": "d41504d7a988b029d870d194e0388fe93543c590"
          }
        },
        {
          "client_id": "740354423333-0nrugmep3o6k0i6ntf21in4vbpaoa8vm.apps.googleusercontent.com",
          "client_type": 1,
          "android_info": {
            "package_name": "com.lokacorner.tabsewa",
            "certificate_hash": "b6e8a02b895db05fe0475c313cfc1301c5bcc763"
          }
        },
        {
          "client_id": "740354423333-t32iint2u44s8pen185bloc91vgkur8g.apps.googleusercontent.com",
          "client_type": 3
        }
      ],
      "api_key": [
        {
          "current_key": "AIzaSyD6u2sL5hLRbsmWxNtju3FkxA2KHI-zaSQ"
        }
      ],
      "services": {
        "analytics_service": {
          "status": 1
        },
        "appinvite_service": {
          "status": 2,
          "other_platform_oauth_client": [
            {
              "client_id": "740354423333-t32iint2u44s8pen185bloc91vgkur8g.apps.googleusercontent.com",
              "client_type": 3
            }
          ]
        },
        "ads_service": {
          "status": 2
        }
      }
    }
  ],
  "configuration_version": "1"
}